{
    "KPlugin": {
        "Authors": [
            {
                "Email": "chani@kde.org",
                "Name": "Chani",
                "Name[ar]": "تشاني",
                "Name[az]": "Chani",
                "Name[be]": "Chani",
                "Name[bg]": "Chani",
                "Name[ca@valencia]": "Chani",
                "Name[ca]": "Chani",
                "Name[cs]": "Chani",
                "Name[da]": "Chani",
                "Name[de]": "Chani",
                "Name[en_GB]": "Chani",
                "Name[es]": "Chani",
                "Name[et]": "Chani",
                "Name[eu]": "Chani",
                "Name[fi]": "Chani",
                "Name[fr]": "Chani",
                "Name[hu]": "Chani",
                "Name[ia]": "Chani",
                "Name[id]": "Chani",
                "Name[is]": "Chani",
                "Name[it]": "Chani",
                "Name[ja]": "Chani",
                "Name[ka]": "Chani",
                "Name[ko]": "Chani",
                "Name[lt]": "Chani",
                "Name[nl]": "Chani",
                "Name[nn]": "Chani",
                "Name[pl]": "Chani",
                "Name[pt]": "Chani",
                "Name[pt_BR]": "Chani",
                "Name[ro]": "Chani",
                "Name[ru]": "Chani",
                "Name[sk]": "Chani",
                "Name[sl]": "Chani",
                "Name[sv]": "Chani",
                "Name[ta]": "இச்சானி",
                "Name[tr]": "Chani",
                "Name[uk]": "Chani",
                "Name[vi]": "Chani",
                "Name[x-test]": "xxChanixx",
                "Name[zh_CN]": "Chani"
            }
        ],
        "Description": "Simple application launcher",
        "Description[ar]": "مُطلِق تطبيقات بسيط",
        "Description[az]": "Sadə tətbiq başladıcısı",
        "Description[be]": "Просты сродак запуску праграм",
        "Description[bg]": "Прост стартер на приложения",
        "Description[ca@valencia]": "Iniciador d'aplicacions senzill",
        "Description[ca]": "Llançador d'aplicacions senzill",
        "Description[cs]": "Jednoduchý spouštěč aplikací",
        "Description[da]": "Simpel programstarter",
        "Description[de]": "Einfacher Anwendungsstarter",
        "Description[en_GB]": "Simple application launcher",
        "Description[eo]": "Simpla aplikaĵolanĉilo",
        "Description[es]": "Lanzador de aplicaciones sencillo",
        "Description[et]": "Lihtne rakenduste käivitaja",
        "Description[eu]": "Aplikazio-abiarazle soila",
        "Description[fi]": "Yksinkertainen sovelluskäynnistin",
        "Description[fr]": "Lanceur simple d'applications",
        "Description[hu]": "Egyszerű alkalmazásindító",
        "Description[ia]": "Simple lanceator de application",
        "Description[id]": "Peluncur aplikasi sederhana",
        "Description[is]": "Einfaldur forritaræsir",
        "Description[it]": "Semplice avviatore di applicazioni",
        "Description[ja]": "シンプルなアプリケーションランチャー",
        "Description[ka]": "მარტივი აპლიკაციების გამშვები",
        "Description[ko]": "간단한 프로그램 실행기",
        "Description[lt]": "Paprasta programų paleidyklė",
        "Description[nl]": "Eenvoudige programmastarter",
        "Description[nn]": "Enkel programstartar",
        "Description[pa]": "ਸਧਾਰਨ ਐਪਲੀਕੇਸ਼ਨ ਲਾਂਚਰ",
        "Description[pl]": "Proste uruchamianie programów",
        "Description[pt]": "Lançador de aplicações simples",
        "Description[pt_BR]": "Lançador de aplicativos simples",
        "Description[ro]": "Lansator de aplicații simplu",
        "Description[ru]": "Упрощённое меню запуска приложений",
        "Description[sk]": "Jednoduchý spúšťač aplikácií",
        "Description[sl]": "Preprost zaganjalnik programov",
        "Description[sv]": "Enkel programstart",
        "Description[ta]": "எளிய செயலி ஏவி",
        "Description[tr]": "Basit uygulama başlatıcı",
        "Description[uk]": "Простий інструмент запуску програм",
        "Description[vi]": "Trình khởi chạy ứng dụng đơn giản",
        "Description[x-test]": "xxSimple application launcherxx",
        "Description[zh_CN]": "简易程序启动器",
        "Description[zh_TW]": "簡單的應用程式啟動器",
        "EnabledByDefault": true,
        "Icon": "preferences-desktop-launch-feedback",
        "Id": "org.kde.applauncher",
        "License": "GPL",
        "Name": "Application Launcher",
        "Name[af]": "Programlanseerder",
        "Name[ar]": "مُطلِق التطبيقات",
        "Name[az]": "Tətbiq Başladıcı",
        "Name[be@latin]": "Uklučeńnie aplikacyi",
        "Name[be]": "Сродак запуску праграм",
        "Name[bg]": "Стартиране на програми",
        "Name[bn]": "অ্যাপলিকেশন লঞ্চার",
        "Name[bn_IN]": "অ্যাপ্লিকেশন সঞ্চালনকারী",
        "Name[bs]": "Pokretač programa",
        "Name[ca@valencia]": "Iniciador d'aplicacions",
        "Name[ca]": "Llançador d'aplicacions",
        "Name[cs]": "Spouštěč aplikací",
        "Name[csb]": "Zrëszôcz programów",
        "Name[da]": "Programmenu",
        "Name[de]": "Anwendungsstarter",
        "Name[el]": "Εκτέλεση εφαρμογών",
        "Name[en_GB]": "Application Launcher",
        "Name[eo]": "Aplikaĵolanĉilo",
        "Name[es]": "Lanzador de aplicaciones",
        "Name[et]": "Rakenduste käivitaja",
        "Name[eu]": "Aplikazio-abiarazlea",
        "Name[fa]": "راه‌انداز برنامه",
        "Name[fi]": "Sovelluskäynnistin",
        "Name[fr]": "Lanceur d'application",
        "Name[fy]": "In applikaashe starter",
        "Name[ga]": "Tosaitheoir Feidhmchlár",
        "Name[gl]": "Iniciador de aplicacións",
        "Name[gu]": "કાર્યક્રમ ચલાવનાર",
        "Name[he]": "משגר יישומים",
        "Name[hi]": "अनुप्रयोग चालक",
        "Name[hne]": "अनुपरयोग चालू करइया",
        "Name[hr]": "Pokretač aplikacija",
        "Name[hsb]": "Startowar za aplikacije",
        "Name[hu]": "Programindító",
        "Name[ia]": "Lanceator de application",
        "Name[id]": "Peluncur Aplikasi",
        "Name[is]": "Forritaræsir",
        "Name[it]": "Avviatore di applicazioni",
        "Name[ja]": "Kickoff アプリケーションランチャー",
        "Name[ka]": "აპლიკაციების გამშვები",
        "Name[kk]": "Қолданбаны жегу",
        "Name[km]": "កម្មវិធី​ចាប់ផ្ដើម​កម្មវិធី​",
        "Name[kn]": "ಅನ್ವಯ ಪ್ರಕ್ಷೇಪಕ (ಲಾಚರ್)",
        "Name[ko]": "프로그램 실행기",
        "Name[ku]": "Deskpêkerê Sepanan",
        "Name[lt]": "Programų paleidyklė",
        "Name[lv]": "Programmu palaidējs",
        "Name[mai]": "अनुप्रयोग चालक",
        "Name[mk]": "Стартувач на апликации",
        "Name[ml]": "പ്രയോഗവിക്ഷേപിണി",
        "Name[mr]": "अनुप्रयोग प्रक्षेपक",
        "Name[nb]": "Programstarter",
        "Name[nds]": "Programmoproper",
        "Name[ne]": "अनुप्रयोक सुरुआतकर्ता",
        "Name[nl]": "Programmastarter",
        "Name[nn]": "Program­startar",
        "Name[or]": "ପ୍ରୟୋଗ ଆରମ୍ଭକର୍ତ୍ତା",
        "Name[pa]": "ਐਪਲੀਕੇਸ਼ਨ ਲਾਂਚਰ",
        "Name[pl]": "Uruchamiacz programów",
        "Name[pt]": "Lançador de Aplicações",
        "Name[pt_BR]": "Lançador de aplicativos",
        "Name[ro]": "Lansator de aplicații",
        "Name[ru]": "Меню запуска приложений",
        "Name[se]": "Prográmmaálggaheaddji",
        "Name[si]": "යෙදුම් ඇරඹුම",
        "Name[sk]": "Spúšťač aplikácií",
        "Name[sl]": "Zaganjalnik programov",
        "Name[sr@ijekavian]": "покретач програма",
        "Name[sr@ijekavianlatin]": "pokretač programa",
        "Name[sr@latin]": "pokretač programa",
        "Name[sr]": "покретач програма",
        "Name[sv]": "Starta program",
        "Name[ta]": "செயலி ஏவி",
        "Name[te]": "అనువర్తనం దించునది",
        "Name[th]": "ตัวเรียกใช้งานโปรแกรม",
        "Name[tr]": "Uygulama Başlatıcı",
        "Name[ug]": "پروگرامما ئىجرا قىلغۇچ",
        "Name[uk]": "Інструмент запуску програм",
        "Name[uz@cyrillic]": "Дастурларни ишга туширувчи",
        "Name[uz]": "Dasturlarni ishga tushiruvchi",
        "Name[vi]": "Trình khởi chạy ứng dụng",
        "Name[wa]": "Enondeu di programe",
        "Name[x-test]": "xxApplication Launcherxx",
        "Name[zh_CN]": "程序启动器",
        "Name[zh_TW]": "應用程式啟動器",
        "Version": "pre0.1",
        "Website": "https://www.kde.org/plasma-desktop"
    },
    "X-Plasma-HasConfigurationInterface": true
}
